{
    "farmer": "किसान",
    "vendor": "विक्रेता",
    "login": "लॉग इन करें",
    "contact_number": "संपर्क संख्या",
    "password": "कुंजिका",
    "sign_up": "साइन अप करें",
    "create_new_account": "कृपया एक नया खाता बनाएं",
    "username": "उपयोगकर्ता नाम",
    "confirm_password": "पासवर्ड की पुष्टि कीजिये",
    "already_have_an_account": "पहले से ही एक खाता है?",
    "select_role": "भूमिका चुनें",
    "products_available": "उपलब्ध उत्पाद",
    "quantity": "मात्रा",
    "request": "प्रार्थना",
    "home": "घर",
    "orders": "आदेश",
    "logout": "लॉग आउट",
    "order_accepted": "स्वीकृत स्वीकार",
    "price": "कीमत",
    "go_to_address": "इस पते पर जाएं",
    "order_status": "स्थिति",
    "order_details": "विवरण",
    "product_details": "उत्पाद विवरण",
    "products_to_sell": "बेचने के लिए उत्पाद",
    "Onions": "प्याज",
    "Apples": "सेब",
    "Mangoes": "आम",
    "Oats": "जई",
    "oats": "जई",
    "kg": "किलोग्राम",
    "price_per_kg": "कीमत रति किलो",
    "per_kg": "प्रति किलो",
    "accept": "स्वीकार करें",
    "decline": "अस्वीकार करें",
    "add_address": "पता जोड़ें",
    "share_location": "स्थान साझा करें",
    "add_new_prod": "नया उत्पाद जोड़ें",
    "product": "उत्पाद",
    "select_category": "श्रेणी का चयन करें",
    "add": "उत्पाद जोड़ें",
    "fruits": "फल",
    "veg": "सब्जियां",
    "cereals": "अनाज",
    "pulses": "दाल",
    "rating": "रेटिंग",
    "sell_item": "आइटम बेचें",
    "select_product": "उत्पाद चुनें",
    "in_INR": "भारतीय रुपये में",
    "in_kg": "किलो में",
    "next": "अगला",
    "cancel": "रद्द करना",
    "product_name": "प्रोडक्ट का नाम",
    "edit": "संपादित करें",
    "confirm": "पुष्टि करना",
    "ok": "ठीक है",
    "upload_items": "आइटम अपलोड करें",
    "logout_successful": "लॉगआउट सफल! कृपया ऐप को बंद करें और फिर से लॉगिन करें",
    "alert_fill_details": "कृपया सभी विवरण भरें!",
    "alert_invalid_cred": "अवैध प्रत्यय पत्र!",
    "add_new_product_here": "यहां नया उत्पाद जोड़ें!",
    "unable_to_find": "आप जो बेचना चाहते हैं उसे खोजने में असमर्थ?",
    "sold_products": "",
    "add_products": ""
}